id;first_name_child;last_name_child;date_of_birth_child;school_level;handicapped
1;Iceland Midi-Pyrénées invoice;bypass magenta applications;Champagne-Ardenne Ergonomic;Incredible;false
2;Zadkine deposit card;Fantastic Lorraine Balanced;bus;Nauru Savings Jewelery;true
3;c system state;Limousin;Fresh parsing XML;index Corée c;true
4;index Executif vortals;vertical;optimize;Health b synergize;false
5;Bedfordshire;eyeballs invoice deposit;Jewelery Bacon real-time;generating Wooden;true
6;Keyboard Distributed Books;up;a alarm;Movies Wooden;true
7;Borders;de collaborative;programming Dobra a;c Vision-oriented;true
8;Books ability Awesome;alarm Public-key Industrial;Assimilated b Toys;Administrateur RAM Concrete;false
9;Awesome customized;applications de;Producteur Berkshire methodical;product Account Baby;true
10;protocol grey;Du;embrace XSS;global Baby Unbranded;false
